This is BibTeX, Version 0.99d (TeX Live 2015/Debian)
Capacity: max_strings=35307, hash_size=35307, hash_prime=30011
The top-level auxiliary file: report.aux
The style file: plain.bst
Database file #1: reference.bib
You've used 2 entries,
            2118 wiz_defined-function locations,
            510 strings with 4486 characters,
and the built_in function-call counts, 668 in all, are:
= -- 59
> -- 50
< -- 0
+ -- 20
- -- 18
* -- 47
:= -- 133
add.period$ -- 8
call.type$ -- 2
change.case$ -- 15
chr.to.int$ -- 0
cite$ -- 2
duplicate$ -- 20
empty$ -- 35
format.name$ -- 18
if$ -- 124
int.to.chr$ -- 0
int.to.str$ -- 2
missing$ -- 2
newline$ -- 15
num.names$ -- 4
pop$ -- 13
preamble$ -- 1
purify$ -- 13
quote$ -- 0
skip$ -- 14
stack$ -- 0
substring$ -- 10
swap$ -- 2
text.length$ -- 0
text.prefix$ -- 0
top$ -- 0
type$ -- 8
warning$ -- 0
while$ -- 4
width$ -- 3
write$ -- 26
